<?xml version="1.0" encoding="UTF-8" standalone="no"?>
<!-- Created with Inkscape (http://www.inkscape.org/) -->

<svg
   xmlns:dc="http://purl.org/dc/elements/1.1/"
   xmlns:cc="http://creativecommons.org/ns#"
   xmlns:rdf="http://www.w3.org/1999/02/22-rdf-syntax-ns#"
   xmlns:svg="http://www.w3.org/2000/svg"
   xmlns="http://www.w3.org/2000/svg"
   xmlns:sodipodi="http://sodipodi.sourceforge.net/DTD/sodipodi-0.dtd"
   xmlns:inkscape="http://www.inkscape.org/namespaces/inkscape"
   width="210mm"
   height="297mm"
   id="svg2"
   version="1.1"
   inkscape:version="0.48.4 r9939"
   sodipodi:docname="response.svg">
  <defs
     id="defs4">
    <marker
       inkscape:stockid="Arrow1Lstart"
       orient="auto"
       refY="0.0"
       refX="0.0"
       id="Arrow1Lstart"
       style="overflow:visible">
      <path
         id="path4197"
         d="M 0.0,0.0 L 5.0,-5.0 L -12.5,0.0 L 5.0,5.0 L 0.0,0.0 z "
         style="fill-rule:evenodd;stroke:#000000;stroke-width:1.0pt"
         transform="scale(0.8) translate(12.5,0)" />
    </marker>
    <marker
       inkscape:stockid="Arrow1Lend"
       orient="auto"
       refY="0.0"
       refX="0.0"
       id="Arrow1Lend"
       style="overflow:visible;">
      <path
         id="path4200"
         d="M 0.0,0.0 L 5.0,-5.0 L -12.5,0.0 L 5.0,5.0 L 0.0,0.0 z "
         style="fill-rule:evenodd;stroke:#000000;stroke-width:1.0pt;"
         transform="scale(0.8) rotate(180) translate(12.5,0)" />
    </marker>
  </defs>
  <sodipodi:namedview
     id="base"
     pagecolor="#ffffff"
     bordercolor="#666666"
     borderopacity="1.0"
     inkscape:pageopacity="0.0"
     inkscape:pageshadow="2"
     inkscape:zoom="0.98994949"
     inkscape:cx="315.84942"
     inkscape:cy="593.91401"
     inkscape:document-units="px"
     inkscape:current-layer="layer1"
     showgrid="false"
     inkscape:window-width="1364"
     inkscape:window-height="766"
     inkscape:window-x="0"
     inkscape:window-y="0"
     inkscape:window-maximized="0">
    <inkscape:grid
       type="xygrid"
       id="grid3982" />
  </sodipodi:namedview>
  <metadata
     id="metadata7">
    <rdf:RDF>
      <cc:Work
         rdf:about="">
        <dc:format>image/svg+xml</dc:format>
        <dc:type
           rdf:resource="http://purl.org/dc/dcmitype/StillImage" />
        <dc:title></dc:title>
      </cc:Work>
    </rdf:RDF>
  </metadata>
  <g
     inkscape:label="Capa 1"
     inkscape:groupmode="layer"
     id="layer1">
    <rect
       style="fill:#b19ee7;fill-opacity:1"
       id="rect3757"
       width="128.75807"
       height="94.53125"
       x="96.890373"
       y="453.67957"
       rx="4.906013"
       ry="1.9188619" />
    <text
       xml:space="preserve"
       style="font-size:23.62963295px;font-style:normal;font-weight:normal;line-height:125%;letter-spacing:0px;word-spacing:0px;fill:#0d0031;fill-opacity:1;stroke:none;font-family:Sans"
       x="160"
       y="492.36218"
       id="text3759"
       sodipodi:linespacing="125%"><tspan
         sodipodi:role="line"
         id="tspan3761"
         x="160"
         y="492.36218"
         style="text-align:center;text-anchor:middle">Peer</tspan><tspan
         sodipodi:role="line"
         x="160"
         y="521.89923"
         id="tspan3822"
         style="text-align:center;text-anchor:middle">(Lecher)</tspan></text>
    <rect
       style="fill:#b19ee7;fill-opacity:1"
       id="rect3757-7"
       width="128.75807"
       height="94.53125"
       x="296.89038"
       y="593.67957"
       rx="4.906013"
       ry="1.9188619" />
    <text
       xml:space="preserve"
       style="font-size:23.62963295px;font-style:normal;font-weight:normal;line-height:125%;letter-spacing:0px;word-spacing:0px;fill:#0d0031;fill-opacity:1;stroke:none;font-family:Sans"
       x="360"
       y="632.36218"
       id="text3759-6"
       sodipodi:linespacing="125%"><tspan
         sodipodi:role="line"
         id="tspan3761-0"
         x="360"
         y="632.36218"
         style="text-align:center;text-anchor:middle">Peer</tspan><tspan
         sodipodi:role="line"
         x="360"
         y="661.89923"
         id="tspan3822-7"
         style="text-align:center;text-anchor:middle">(Lecher)</tspan></text>
    <rect
       style="fill:#b19ee7;fill-opacity:1"
       id="rect3757-6"
       width="128.75807"
       height="94.53125"
       x="496.89038"
       y="453.67957"
       rx="4.906013"
       ry="1.9188619" />
    <text
       xml:space="preserve"
       style="font-size:23.62963295px;font-style:normal;font-weight:normal;line-height:125%;letter-spacing:0px;word-spacing:0px;fill:#0d0031;fill-opacity:1;stroke:none;font-family:Sans"
       x="560"
       y="492.36218"
       id="text3759-4"
       sodipodi:linespacing="125%"><tspan
         sodipodi:role="line"
         id="tspan3761-8"
         x="560"
         y="492.36218"
         style="text-align:center;text-anchor:middle">Peer</tspan><tspan
         sodipodi:role="line"
         x="560"
         y="521.89923"
         id="tspan3822-5"
         style="text-align:center;text-anchor:middle">(Seeder)</tspan></text>
    <path
       sodipodi:type="arc"
       style="fill:#320aa2;fill-opacity:1"
       id="path3957"
       sodipodi:cx="308.57144"
       sodipodi:cy="261.64789"
       sodipodi:rx="94.285713"
       sodipodi:ry="75"
       d="m 402.85715,261.64789 a 94.285713,75 0 1 1 -188.57142,0 94.285713,75 0 1 1 188.57142,0 z"
       transform="matrix(1,0,0,0.95238091,52.857143,7.4594237)" />
    <text
       xml:space="preserve"
       style="font-size:36.31403731999999707px;font-style:normal;font-weight:normal;line-height:125%;letter-spacing:0px;word-spacing:0px;fill:#0d0031;fill-opacity:1;stroke:none;font-family:Sans"
       x="294.354"
       y="268.64682"
       id="text3959"
       sodipodi:linespacing="125%"><tspan
         sodipodi:role="line"
         id="tspan3961"
         x="294.354"
         y="268.64682">Tracker</tspan></text>
    <path
       sodipodi:type="arc"
       style="fill:#9db2e6;fill-opacity:1"
       id="path3984"
       sodipodi:cx="124.28571"
       sodipodi:cy="160.21933"
       sodipodi:rx="84.285713"
       sodipodi:ry="70.714287"
       d="m 208.57143,160.21933 a 84.285713,70.714287 0 1 1 -168.57143,0 84.285713,70.714287 0 1 1 168.57143,0 z" />
    <text
       xml:space="preserve"
       style="font-size:14.22525311px;font-style:normal;font-weight:normal;line-height:125%;letter-spacing:0px;word-spacing:0px;fill:#000000;fill-opacity:1;stroke:none;font-family:Sans"
       x="122.74797"
       y="156.27763"
       id="text3986"
       sodipodi:linespacing="125%"><tspan
         sodipodi:role="line"
         id="tspan3988"
         x="122.74797"
         y="156.27763"
         style="text-align:center;text-anchor:middle">Indexador de torrents</tspan><tspan
         sodipodi:role="line"
         x="122.74797"
         y="174.0592"
         id="tspan3990"
         style="text-align:center;text-anchor:middle">(Página web)</tspan></text>
    <path
       style="fill:none;stroke:#000000;stroke-width:1px;stroke-linecap:butt;stroke-linejoin:miter;stroke-opacity:1;marker-mid:none;marker-end:none;marker-start:url(#Arrow1Lstart)"
       d="m 225.26402,498.79859 271.73103,0"
       id="path5883"
       inkscape:connector-curvature="0" />
    <text
       xml:space="preserve"
       style="font-size:25.79565811px;font-style:normal;font-weight:normal;line-height:125%;letter-spacing:0px;word-spacing:0px;fill:#000000;fill-opacity:1;stroke:none;font-family:Sans"
       x="244.35493"
       y="489.32742"
       id="text7631"
       sodipodi:linespacing="125%"><tspan
         sodipodi:role="line"
         id="tspan7633"
         x="244.35493"
         y="489.32742">Response - Bloque</tspan></text>
  </g>
</svg>
